{"source": "nginx", "time": 1689873688.906, "resp_body_size": 4125, "host": "Domain_One", "address": "127.0.0.1", "request_length": 270, "method": "GET", "uri": "/Page-01", "status": 200,  "user_agent": "Mozilla/5.0 (Windows NT 10.0; rv:109.0) Gecko/20100101 Firefox/115.0", "resp_time": 0.004, "upstream_addr": "192.168.160.4:1313"}
{"source": "nginx", "time": 1689952525.085, "resp_body_size": 19, "host": "Domain_Two", "address": "192.168.0.1", "request_length": 261, "method": "POST", "uri": "/Page-02", "status": 404,  "user_agent": "Mozilla/4.0 (compatible; MSIE 6.0; Windows NT 5.1)", "resp_time": 0.068, "upstream_addr": "192.168.176.2:1313"}
{"source": "nginx", "time": 1689955721.676, "resp_body_size": 150, "host": "", "address": "10.0.0.1", "request_length": 0, "method": "", "uri": "/Page-03", "status": 400,  "user_agent": "", "resp_time": 7.594, "upstream_addr": ""}
